1、杭州组播地址：udp/233.50.201.118:5140或rtp/233.50.201.118:5140（udp和rtp一样）
2、打开https://fofa.info/，输入"udpxy"&&city="Hangzhou"，经测试温州也可以
得到IP（有些没用，多复制几个试试）复制IP加到组播地址前，
得到直播地址http://220.191.36.105:8125/udp/233.50.201.118:5140$杭州电信

CCTV1,http://218.71.45.167:9999/udp/233.50.200.99:5140$温州电信
CCTV1,http://218.71.45.167:9999/udp/233.50.200.130:5140$温州电信
CCTV1,http://218.71.45.167:9999/udp/233.50.200.143:5140$温州电信
CCTV1,http://218.71.45.167:9999/udp/233.50.200.247:5140$温州电信
CCTV1,http://220.191.36.105:8125/udp/233.50.201.118:5140$杭州电信
CCTV1,http://218.71.45.167:9999/udp/233.50.201.222:5140$温州电信
CCTV1,http://218.71.45.167:9999/udp/233.50.201.226:5140$温州电信
CCTV2,http://218.71.45.167:9999/udp/233.50.200.25:5140$温州电信
CCTV2,http://218.71.45.167:9999/udp/233.50.200.100:5140$温州电信
CCTV2,http://218.71.45.167:9999/udp/233.50.201.119:5140$温州电信
CCTV3,http://218.71.45.167:9999/udp/233.50.201.196:5140$温州电信
CCTV3,http://218.71.45.167:9999/udp/233.50.200.107:5140$温州电信
CCTV4,http://218.71.45.167:9999/udp/233.50.200.101:5140$温州电信
CCTV5,http://218.71.45.167:9999/udp/233.50.200.108:5140$温州电信
CCTV5+,http://218.71.45.167:9999/udp/233.50.201.220:5140$温州电信
CCTV6,http://218.71.45.167:9999/udp/233.50.200.109:5140$温州电信
CCTV6,http://218.71.45.167:9999/udp/233.50.201.198:5140$温州电信
CCTV7,http://218.71.45.167:9999/udp/233.50.201.120:5140$温州电信
CCTV7,http://218.71.45.167:9999/udp/233.50.200.24:5140$温州电信
CCTV7,http://218.71.45.167:9999/udp/233.50.200.102:5140$温州电信
CCTV8,http://218.71.45.167:9999/udp/233.50.201.199:5140$温州电信
CCTV8,http://218.71.45.167:9999/udp/233.50.200.110:5140$温州电信
CCTV9,http://218.71.45.167:9999/udp/233.50.201.121:5140$温州电信
CCTV9,http://218.71.45.167:9999/udp/233.50.200.23:5140$温州电信
CCTV10,http://218.71.45.167:9999/udp/233.50.201.122:5140$温州电信
CCTV10,http://218.71.45.167:9999/udp/233.50.200.22:5140$温州电信
CCTV11,http://218.71.45.167:9999/udp/233.50.200.132:5140$温州电信
CCTV12,http://218.71.45.167:9999/udp/233.50.200.21:5140$温州电信
CCTV13,http://218.71.45.167:9999/udp/233.50.201.246:5140$温州电信
CCTV13,http://218.71.45.167:9999/udp/233.50.200.97:5140$温州电信
CCTV13,http://218.71.45.167:9999/udp/233.50.200.111:5140$温州电信
CCTV14,http://218.71.45.167:9999/udp/233.50.201.124:5140$温州电信
CCTV14,http://218.71.45.167:9999/udp/233.50.200.20:5140$温州电信
CCTV14,http://218.71.45.167:9999/udp/233.50.200.103:5140$温州电信
CCTV15,http://218.71.45.167:9999/udp/233.50.200.133:5140$温州电信
CCTV16,http://218.71.45.167:9999/udp/233.50.201.192:5140$温州电信
CCTV16,http://218.71.45.167:9999/udp/233.50.200.112:5140$温州电信
CCTV16-4K,http://218.71.45.167:9999/udp/233.50.201.63:5140$温州电信
CCTV17,http://218.71.45.167:9999/udp/233.50.200.113:5140$温州电信
CETV-4,http://218.71.45.167:9999/udp/233.50.200.162:5140$温州电信
浙江卫视,http://218.71.45.167:9999/udp/233.50.201.100:5140$温州电信
浙江卫视,http://218.71.45.167:9999/udp/233.50.201.221:5140$温州电信
浙江卫视,http://218.71.45.167:9999/udp/233.50.200.231:5140$温州电信
浙江卫视,http://218.71.45.167:9999/udp/233.50.200.145:5140$温州电信
深圳卫视,http://218.71.45.167:9999/udp/233.50.201.101:5140$温州电信
深圳卫视,http://218.71.45.167:9999/udp/233.50.200.188:5140$温州电信
广东卫视,http://218.71.45.167:9999/udp/233.50.201.102:5140$温州电信
广东卫视,http://218.71.45.167:9999/udp/233.50.200.187:5140$温州电信
广东卫视,http://218.71.45.167:9999/udp/233.50.200.149:5140$温州电信
湖南卫视,http://218.71.45.167:9999/udp/233.50.201.103:5140$温州电信
湖南卫视,http://218.71.45.167:9999/udp/233.50.200.190:5140$温州电信
天津卫视,http://218.71.45.167:9999/udp/233.50.201.104:5140$温州电信
天津卫视,http://218.71.45.167:9999/udp/233.50.200.104:5140$温州电信
山东卫视,http://218.71.45.167:9999/udp/233.50.201.105:5140$温州电信
江苏卫视,http://218.71.45.167:9999/udp/233.50.201.106:5140$温州电信
江苏卫视,http://218.71.45.167:9999/udp/233.50.200.144:5140$温州电信
北京卫视,http://218.71.45.167:9999/udp/233.50.201.107:5140$温州电信
北京卫视,http://218.71.45.167:9999/udp/233.50.200.179:5140$温州电信
安徽卫视,http://218.71.45.167:9999/udp/233.50.201.113:5140$温州电信
安徽卫视,http://218.71.45.167:9999/udp/233.50.200.106:5140$温州电信
湖北卫视,http://218.71.45.167:9999/udp/233.50.201.114:5140$温州电信
湖北卫视,http://218.71.45.167:9999/udp/233.50.200.147:5140$温州电信
黑龙江卫视,http://218.71.45.167:9999/udp/233.50.201.115:5140$温州电信
黑龙江卫视,http://218.71.45.167:9999/udp/233.50.200.189:5140$温州电信
东方卫视,http://218.71.45.167:9999/udp/233.50.201.125:5140$温州电信
东方卫视,http://218.71.45.167:9999/udp/233.50.200.146:5140$温州电信
东方卫视,http://218.71.45.167:9999/udp/233.50.200.248:5140$温州电信
四川卫视,http://218.71.45.167:9999/udp/233.50.201.139:5140$温州电信
四川卫视,http://218.71.45.167:9999/udp/233.50.200.118:5140$温州电信
河北卫视,http://218.71.45.167:9999/udp/233.50.201.140:5140$温州电信
河北卫视,http://218.71.45.167:9999/udp/233.50.200.105:5140$温州电信
辽宁卫视,http://218.71.45.167:9999/udp/233.50.201.141:5140$温州电信
贵州卫视,http://218.71.45.167:9999/udp/233.50.201.142:5140$温州电信
内蒙古卫视,http://218.71.45.167:9999/udp/233.50.201.148:5140$温州电信
西藏卫视,http://218.71.45.167:9999/udp/233.50.201.70:5140$温州电信720
西藏卫视,http://218.71.45.167:9999/udp/233.50.200.137:5140$温州电信720
西藏卫视,http://218.71.45.167:9999/udp/233.50.201.70:5140$温州电信720
重庆卫视,http://218.71.45.167:9999/udp/233.50.201.143:5140$温州电信
重庆卫视,http://218.71.45.167:9999/udp/233.50.200.114:5140$温州电信
河南卫视,http://218.71.45.167:9999/udp/233.50.201.144:5140$温州电信
江西卫视,http://218.71.45.167:9999/udp/233.50.201.145:5140$温州电信
江西卫视,http://218.71.45.167:9999/udp/233.50.200.119:5140$温州电信
东南卫视,http://218.71.45.167:9999/udp/233.50.201.146:5140$温州电信
云南卫视,http://218.71.45.167:9999/udp/233.50.200.115:5140$温州电信
兵团卫视,http://218.71.45.167:9999/udp/233.50.201.72:5140$温州电信
凤凰中文,http://218.71.45.167:9999/udp/233.50.200.42:5140$温州电信
凤凰中文,http://218.71.45.167:9999/udp/233.50.200.191:5140$温州电信
凤凰资讯,http://218.71.45.167:9999/udp/233.50.200.192:5140$温州电信
浙江钱江都市,http://218.71.45.167:9999/udp/233.50.201.132:5140$温州电信
浙江经济生活,http://218.71.45.167:9999/udp/233.50.201.133:5140$温州电信
浙江教科影视,http://218.71.45.167:9999/udp/233.50.201.134:5140$温州电信
浙江民生休闲,http://218.71.45.167:9999/udp/233.50.201.136:5140$温州电信
浙江新闻,http://218.71.45.167:9999/udp/233.50.201.137:5140$温州电信
浙江少儿,http://218.71.45.167:9999/udp/233.50.201.138:5140$温州电信
之江纪录,http://218.71.45.167:9999/udp/233.50.201.223:5140$温州电信
之江纪录,http://218.71.45.167:9999/udp/233.50.202.25:5140$温州电信
杭州-1综合,http://218.71.45.167:9999/udp/233.50.201.173:5140$温州电信
杭州-2明珠,http://218.71.45.167:9999/udp/233.50.201.174:5140$温州电信
杭州-3生活,http://218.71.45.167:9999/udp/233.50.201.175:5140$温州电信
杭州-4影视,http://218.71.45.167:9999/udp/233.50.201.176:5140$温州电信
杭州-5少体,http://218.71.45.167:9999/udp/233.50.201.177:5140$温州电信
吴兴新闻,http://218.71.45.167:9999/udp/233.50.201.158:5140$温州电信
临平新闻,http://218.71.45.167:9999/udp/233.50.202.32:5140$温州电信
宁波-1新闻综合,http://218.71.45.167:9999/udp/233.50.200.26:5140$温州电信
宁波-1新闻综合,http://218.71.45.167:9999/udp/233.50.201.151:5140$温州电信
宁波-1新闻综合,http://218.71.45.167:9999/udp/233.50.201.168:5140$温州电信
宁波-2经济生活,http://218.71.45.167:9999/udp/233.50.200.27:5140$温州电信
宁波-2经济生活,http://218.71.45.167:9999/udp/233.50.201.152:5140$温州电信
宁波-2经济生活,http://218.71.45.167:9999/udp/233.50.201.178:5140$温州电信
宁波-3都市文体,http://218.71.45.167:9999/udp/233.50.200.28:5140$温州电信
宁波-3都市文体,http://218.71.45.167:9999/udp/233.50.201.153:5140$温州电信
宁波-3都市文体,http://218.71.45.167:9999/udp/233.50.201.179:5140$温州电信
宁波-4影视剧,http://218.71.45.167:9999/udp/233.50.200.29:5140$温州电信
宁波-4影视剧,http://218.71.45.167:9999/udp/233.50.201.154:5140$温州电信
宁波-4影视剧,http://218.71.45.167:9999/udp/233.50.201.180:5140$温州电信
宁波-5少儿,http://218.71.45.167:9999/udp/233.50.201.181:5140$温州电信
温州新闻,http://218.71.45.167:9999/udp/233.50.201.87:5140$温州电信
绍兴新闻,http://218.71.45.167:9999/udp/233.50.201.156:5140$温州电信
丽水新闻综合,http://218.71.45.167:9999/udp/233.50.201.162:5140$温州电信
嘉兴新闻综合,http://218.71.45.167:9999/udp/233.50.201.163:5140$温州电信
桐乡新闻综合,http://218.71.45.167:9999/udp/233.50.201.169:5140$温州电信
杭州导视,http://218.71.45.167:9999/udp/233.50.201.182:5140$温州电信
余杭新闻频道,http://218.71.45.167:9999/udp/233.50.201.159:5140$温州电信
衢州新闻综合,http://218.71.45.167:9999/udp/233.50.202.11:5140$温州电信
衢州公共,http://218.71.45.167:9999/udp/233.50.202.12:5140$温州电信
临平新闻,http://218.71.45.167:9999/udp/233.50.202.32:5140$温州电信
游戏风云,http://218.71.45.167:9999/udp/233.50.201.183:5140$温州电信
游戏风云,http://218.71.45.167:9999/udp/233.50.200.14:5140$温州电信
动漫秀场,http://218.71.45.167:9999/udp/233.50.201.184:5140$温州电信
动漫秀场,http://218.71.45.167:9999/udp/233.50.200.12:5140$温州电信
乐游,http://218.71.45.167:9999/udp/233.50.201.185:5140$温州电信
乐游,http://218.71.45.167:9999/udp/233.50.200.148:5140$温州电信
金色学堂,http://218.71.45.167:9999/udp/233.50.201.186:5140$温州电信
金色学堂,http://218.71.45.167:9999/udp/233.50.200.122:5140$温州电信
生活时尚,http://218.71.45.167:9999/udp/233.50.201.187:5140$温州电信
生活时尚,http://218.71.45.167:9999/udp/233.50.200.15:5140$温州电信
欢笑剧场,http://218.71.45.167:9999/udp/233.50.201.189:5140$温州电信
欢笑剧场4K,http://218.71.45.167:9999/udp/233.50.200.229:5140$温州电
都市剧场,http://218.71.45.167:9999/udp/233.50.201.190:5140$温州电信
都市剧场,http://218.71.45.167:9999/udp/233.50.200.11:5140$温州电信
法治天地,http://218.71.45.167:9999/udp/233.50.201.191:5140$温州电信
法制天地,http://218.71.45.167:9999/udp/233.50.200.120:5140$温州电信
快乐垂钓,http://218.71.45.167:9999/udp/233.50.201.109:5140$温州电信
快乐垂钓,http://218.71.45.167:9999/udp/233.50.200.123:5140$温州电信
茶频道,http://218.71.45.167:9999/udp/233.50.201.188:5140$温州电信
茶频道,http://218.71.45.167:9999/udp/233.50.200.124:5140$温州电信
好易购,http://218.71.45.167:9999/udp/233.50.201.248:5140$温州电信
江苏国际,http://218.71.45.167:9999/udp/233.50.201.193:5140$温州电信
睛彩竞技,http://218.71.45.167:9999/udp/233.50.202.26:5140$温州电信
晴彩篮球,http://218.71.45.167:9999/udp/233.50.201.194:5140$温州电信
睛彩篮球,http://218.71.45.167:9999/udp/233.50.202.27:5140$温州电信
晴彩羽毛球,http://218.71.45.167:9999/udp/233.50.201.195:5140$温州电信
睛彩羽毛球,http://218.71.45.167:9999/udp/233.50.202.28:5140$温州电信
睛彩广场舞,http://218.71.45.167:9999/udp/233.50.202.29:5140$温州电信
浙江之声,http://218.71.45.167:9999/udp/233.50.201.79:5140$温州电信
浙江新闻,http://218.71.45.167:9999/udp/233.50.201.80:5140$温州电信
经济广播,http://218.71.45.167:9999/udp/233.50.201.81:5140$温州电信
音乐调频,http://218.71.45.167:9999/udp/233.50.201.82:5140$温州电信
交通之声,http://218.71.45.167:9999/udp/233.50.201.83:5140$温州电信
旅游之声,http://218.71.45.167:9999/udp/233.50.201.84:5140$温州电信
城市之声,http://218.71.45.167:9999/udp/233.50.201.85:5140$温州电信
民生资讯,http://218.71.45.167:9999/udp/233.50.201.86:5140$温州电信
浙江电影,http://218.71.45.167:9999/udp/233.50.201.108:5140$温州电信
高清娱乐,http://218.71.45.167:9999/udp/233.50.201.116:5140$温州电信
探索纪录,http://218.71.45.167:9999/udp/233.50.201.117:5140$温州电信
影视指南,http://218.71.45.167:9999/udp/233.50.201.226:5140$温州电信
五星体育,http://218.71.45.167:9999/udp/233.50.201.207:5140$温州电信
1,http://218.71.45.167:9999/udp/233.50.201.108:5140$温州电信
2,http://218.71.45.167:9999/udp/233.50.201.116:5140$温州电信
3,http://218.71.45.167:9999/udp/233.50.201.117:5140$温州电信
4,http://218.71.45.167:9999/udp/233.50.201.226:5140$温州电信
第一财经,http://218.71.45.167:9999/udp/233.50.200.125:5140$温州电信
重庆汽摩,http://218.71.45.167:9999/udp/233.50.202.30:5140$温州电信
环球旅游,http://218.71.45.167:9999/udp/233.50.202.31:5140$温州电信
兵团卫视,http://218.71.45.167:9999/udp/233.50.200.171:5140$温州电信720
山西卫视,http://218.71.45.167:9999/udp/233.50.200.172:5140$温州电信720
山西卫视,http://218.71.45.167:9999/udp/233.50.201.51:5140$温州电信720
宁夏卫视,http://218.71.45.167:9999/udp/233.50.200.215:5140$温州电信720
宁夏卫视,http://218.71.45.167:9999/udp/233.50.201.57:5140$温州电信720
广西卫视,http://218.71.45.167:9999/udp/233.50.201.49:5140$温州电信720
陕西卫视,http://218.71.45.167:9999/udp/233.50.201.59:5140$温州电信720
青海卫视,http://218.71.45.167:9999/udp/233.50.201.65:5140$温州电信720
金鹰卡通,http://218.71.45.167:9999/udp/233.50.201.73:5140$温州电信720
哈哈炫动,http://218.71.45.167:9999/udp/233.50.201.74:5140$温州电信720
中央新影发现之旅720,http://218.71.45.167:9999/udp/233.50.201.98:5140$温州电信720
甘肃卫视,http://218.71.45.167:9999/udp/233.50.201.149:5140$温州电信720